{
    "_links": {
        "previous": null,
        "next": "/api/admin/1/states?page=2&pageSize=10",
        "first": "/api/admin/1/states?page=1&pageSize=10",
        "last": "/api/admin/1/states?page=9&pageSize=10"
    },
    "_meta": {
        "total": 83,
        "pageSize": 10,
        "page": 1
    },
    "items": [

         ...
        
    ]
}
